/* XPM */
static char * home_xpm[] = {
"48 48 747 2",
"  	c None",
". 	c #EEE8E2",
"+ 	c #FCFAF9",
"@ 	c #F5F1EE",
"# 	c #E7DED6",
"$ 	c #473E37",
"% 	c #F1EBE7",
"& 	c #F5F1EF",
"* 	c #D5C3B5",
"= 	c #B6987F",
"- 	c #A88366",
"; 	c #3C2F24",
"> 	c #EBE7E4",
", 	c #EAE2DD",
"' 	c #F4F1EE",
") 	c #F7F4F2",
"! 	c #E1D5CD",
"~ 	c #C8B4A2",
"{ 	c #AF8F75",
"] 	c #A58164",
"^ 	c #A78265",
"/ 	c #9E7B60",
"( 	c #EAE6E2",
"_ 	c #FFFFFF",
": 	c #F0ECEA",
"< 	c #D7CDC5",
"[ 	c #987D67",
"} 	c #7A5F49",
"| 	c #372B21",
"1 	c #E4DCD5",
"2 	c #F5F3F0",
"3 	c #F3EFEC",
"4 	c #F0EBE8",
"5 	c #DACCC3",
"6 	c #AE917B",
"7 	c #9D7B5F",
"8 	c #9F7C60",
"9 	c #A07D61",
"0 	c #A27E62",
"a 	c #A37F63",
"b 	c #A58064",
"c 	c #A68165",
"d 	c #896A53",
"e 	c #5C5047",
"f 	c #000000",
"g 	c #DED7D2",
"h 	c #E2DCD7",
"i 	c #C7BAB0",
"j 	c #83664F",
"k 	c #856850",
"l 	c #866951",
"m 	c #886A52",
"n 	c #896B53",
"o 	c #47372B",
"p 	c #362A21",
"q 	c #EDE8E4",
"r 	c #E8E3DE",
"s 	c #EEE9E6",
"t 	c #E8E1DC",
"u 	c #CCBCB0",
"v 	c #A88D78",
"w 	c #97755B",
"x 	c #98775C",
"y 	c #9A785D",
"z 	c #9B795E",
"A 	c #9D7A5F",
"B 	c #A07C61",
"C 	c #A17E62",
"D 	c #B99E88",
"E 	c #DCCEC3",
"F 	c #7E634C",
"G 	c #7F644D",
"H 	c #81654E",
"I 	c #82664F",
"J 	c #846750",
"K 	c #856851",
"L 	c #876952",
"M 	c #80644E",
"N 	c #705843",
"O 	c #C5B6A9",
"P 	c #A9927F",
"Q 	c #907057",
"R 	c #917158",
"S 	c #937359",
"T 	c #94745A",
"U 	c #96755B",
"V 	c #97765C",
"W 	c #99775D",
"X 	c #AE927B",
"Y 	c #D2C3B7",
"Z 	c #DAD3CD",
"` 	c #7C614B",
" .	c #7D624C",
"..	c #7F634D",
"+.	c #82654E",
"@.	c #83674F",
"#.	c #8B6C54",
"$.	c #8C6E55",
"%.	c #8E6F56",
"&.	c #8F7057",
"*.	c #927259",
"=.	c #A1846D",
"-.	c #C5B3A5",
";.	c #EAE3DE",
">.	c #BAADA3",
",.	c #7A5F4A",
"'.	c #7B604A",
").	c #7D614B",
"!.	c #80644D",
"~.	c #866851",
"{.	c #876A52",
"].	c #8A6C54",
"^.	c #8C6D54",
"/.	c #9A7F69",
"(.	c #C1B0A2",
"_.	c #DFD6CF",
":.	c #DFD9D5",
"<.	c #EEEBE8",
"[.	c #E3DEDA",
"}.	c #E2DDD8",
"|.	c #775E48",
"1.	c #795F49",
"2.	c #7A604A",
"3.	c #836750",
"4.	c #A18B78",
"5.	c #B29E8D",
"6.	c #EBE9E6",
"7.	c #D3CDC7",
"8.	c #CDC4BE",
"9.	c #E6E2DE",
"0.	c #BBAFA6",
"a.	c #998879",
"b.	c #7C6450",
"c.	c #755C47",
"d.	c #775D48",
"e.	c #765C47",
"f.	c #775C47",
"g.	c #7D624B",
"h.	c #856C56",
"i.	c #8C705A",
"j.	c #E9E6E4",
"k.	c #A19387",
"l.	c #B9ADA4",
"m.	c #917F70",
"n.	c #6F5743",
"o.	c #705844",
"p.	c #725945",
"q.	c #735A46",
"r.	c #755B46",
"s.	c #8D6E55",
"t.	c #8A6C53",
"u.	c #886B52",
"v.	c #856950",
"w.	c #F4F2F1",
"x.	c #68523F",
"y.	c #695340",
"z.	c #6B5441",
"A.	c #6C5542",
"B.	c #6E5642",
"C.	c #8B7766",
"D.	c #927359",
"E.	c #907157",
"F.	c #8B6D54",
"G.	c #866A51",
"H.	c #846850",
"I.	c #66503D",
"J.	c #67513E",
"K.	c #69523F",
"L.	c #6A5340",
"M.	c #6C5541",
"N.	c #6D5642",
"O.	c #98765C",
"P.	c #96755A",
"Q.	c #917258",
"R.	c #8F7056",
"S.	c #82674F",
"T.	c #F4F3F2",
"U.	c #644E3C",
"V.	c #654F3D",
"W.	c #A07D60",
"X.	c #99775C",
"Y.	c #927258",
"Z.	c #8F7157",
"`.	c #8D6F55",
" +	c #81664E",
".+	c #F9F8F7",
"++	c #614D3B",
"@+	c #634E3C",
"#+	c #644F3D",
"$+	c #66503E",
"%+	c #7B6756",
"&+	c #9E7C60",
"*+	c #9C7A5E",
"=+	c #95745A",
"-+	c #907258",
";+	c #8E7056",
">+	c #896C53",
",+	c #80654D",
"'+	c #5F4B3A",
")+	c #614C3A",
"!+	c #624D3B",
"~+	c #65503D",
"{+	c #9E9084",
"]+	c #9B795D",
"^+	c #947359",
"/+	c #8A6D54",
"(+	c #F8F8F7",
"_+	c #5D4938",
":+	c #5F4A39",
"<+	c #604C3A",
"[+	c #BCB3AB",
"}+	c #9B7A5E",
"|+	c #99785D",
"1+	c #97765B",
"2+	c #8C6E54",
"3+	c #876A51",
"4+	c #82664E",
"5+	c #5B4837",
"6+	c #5C4938",
"7+	c #5E4A39",
"8+	c #614C3B",
"9+	c #CBC4BE",
"0+	c #9A795D",
"a+	c #81654D",
"b+	c #7C614A",
"c+	c #594636",
"d+	c #5A4736",
"e+	c #5C4837",
"f+	c #5F4B39",
"g+	c #DCD8D4",
"h+	c #8D6F56",
"i+	c #F8F7F7",
"j+	c #574434",
"k+	c #584535",
"l+	c #98765B",
"m+	c #95755A",
"n+	c #917157",
"o+	c #856951",
"p+	c #785F4A",
"q+	c #6D5645",
"r+	c #6D5643",
"s+	c #7A6049",
"t+	c #544333",
"u+	c #564434",
"v+	c #574535",
"w+	c #5A4737",
"x+	c #947459",
"y+	c #7F6C5E",
"z+	c #907974",
"A+	c #745F57",
"B+	c #6D5641",
"C+	c #58483A",
"D+	c #524132",
"E+	c #544233",
"F+	c #554333",
"G+	c #584635",
"H+	c #8B6E55",
"I+	c #7D634C",
"J+	c #8F9594",
"K+	c #A88687",
"L+	c #8D6A68",
"M+	c #484039",
"N+	c #6B6158",
"O+	c #35261E",
"P+	c #453D37",
"Q+	c #9FA6A8",
"R+	c #EFF8FE",
"S+	c #D2DBE3",
"T+	c #C8D1D9",
"U+	c #C9D1D8",
"V+	c #D8E2EC",
"W+	c #DBDDE0",
"X+	c #503F30",
"Y+	c #514031",
"Z+	c #544232",
"`+	c #574534",
" @	c #6E5C4D",
".@	c #5D4B3B",
"+@	c #6E5743",
"@@	c #7B635B",
"#@	c #75625C",
"$@	c #685E56",
"%@	c #443D37",
"&@	c #3E2E23",
"*@	c #9A9B98",
"=@	c #C0C6C9",
"-@	c #D3DCDF",
";@	c #CDD6DD",
">@	c #C2CCD1",
",@	c #C6CFD5",
"'@	c #D0D9E1",
")@	c #C3CBD1",
"!@	c #C4CBD3",
"~@	c #4E3E2F",
"{@	c #4F3F30",
"]@	c #866952",
"^@	c #735F4D",
"/@	c #6F635B",
"(@	c #463B30",
"_@	c #564739",
":@	c #5A4A3C",
"<@	c #5A493C",
"[@	c #735B51",
"}@	c #5B514A",
"|@	c #57514C",
"1@	c #57524B",
"2@	c #7D7670",
"3@	c #C9CDCD",
"4@	c #E0E6E8",
"5@	c #DFE8EB",
"6@	c #CCD5DD",
"7@	c #C9D3DC",
"8@	c #CBD5DC",
"9@	c #D3DFE6",
"0@	c #C7D1D5",
"a@	c #C8D2D7",
"b@	c #C5CFD3",
"c@	c #4C3C2E",
"d@	c #4D3D2F",
"e@	c #4F3E2F",
"f@	c #554433",
"g@	c #836C59",
"h@	c #84756B",
"i@	c #86807D",
"j@	c #372F26",
"k@	c #70685F",
"l@	c #7B746B",
"m@	c #73756E",
"n@	c #6C665A",
"o@	c #45413C",
"p@	c #4C4946",
"q@	c #737270",
"r@	c #EFF4F9",
"s@	c #EBEFF4",
"t@	c #E5E9EF",
"u@	c #DAE2E6",
"v@	c #D0D8E0",
"w@	c #CFD9E0",
"x@	c #CFD8DE",
"y@	c #D1DBE1",
"z@	c #D0D9E0",
"A@	c #D0DBE3",
"B@	c #D6DFE6",
"C@	c #4A3A2C",
"D@	c #4B3B2D",
"E@	c #4D3D2E",
"F@	c #8E7969",
"G@	c #C0B4AA",
"H@	c #24201B",
"I@	c #5A5751",
"J@	c #5B5950",
"K@	c #49473D",
"L@	c #5A5C5A",
"M@	c #928A86",
"N@	c #9F9895",
"O@	c #8D9595",
"P@	c #878A8A",
"Q@	c #757A77",
"R@	c #7B7A76",
"S@	c #857E75",
"T@	c #928D8B",
"U@	c #8B8A89",
"V@	c #929490",
"W@	c #A9ABA8",
"X@	c #9FA7A9",
"Y@	c #B2BABD",
"Z@	c #C6CDD0",
"`@	c #E9F0F4",
" #	c #E9EDF4",
".#	c #47392B",
"+#	c #493A2C",
"@#	c #4A3B2D",
"##	c #685148",
"$#	c #6B5955",
"%#	c #8E8C89",
"&#	c #A4A8A8",
"*#	c #9E9C9A",
"=#	c #A4A5A3",
"-#	c #B4BBC2",
";#	c #BFC4C5",
">#	c #C7CBCC",
",#	c #C0C3C4",
"'#	c #B1B6B6",
")#	c #D4D6DA",
"!#	c #E1E3E5",
"~#	c #E1E4E7",
"{#	c #D8D8D9",
"]#	c #B5B3B2",
"^#	c #BEBEC1",
"/#	c #C0C5C8",
"(#	c #CDD2D6",
"_#	c #A1A9AB",
":#	c #A9AFB1",
"<#	c #9CA0A2",
"[#	c #898C8B",
"}#	c #808080",
"|#	c #323333",
"1#	c #F8F7F6",
"2#	c #45372A",
"3#	c #47382B",
"4#	c #48392C",
"5#	c #6B5C51",
"6#	c #716562",
"7#	c #7E7C7C",
"8#	c #D4DADF",
"9#	c #81807E",
"0#	c #8B8C8C",
"a#	c #C9D3DB",
"b#	c #B4B3B3",
"c#	c #B3B5B6",
"d#	c #B4B7BA",
"e#	c #BCC2C4",
"f#	c #D8DEE6",
"g#	c #DBE0E4",
"h#	c #DDE2E8",
"i#	c #DEE2E4",
"j#	c #56514E",
"k#	c #A8A6A7",
"l#	c #C3C5C6",
"m#	c #E2E5ED",
"n#	c #606362",
"o#	c #7E807F",
"p#	c #8D8F92",
"q#	c #B1B3B6",
"r#	c #9B9EA2",
"s#	c #F7F7F6",
"t#	c #433528",
"u#	c #453629",
"v#	c #46382A",
"w#	c #48392B",
"x#	c #78695E",
"y#	c #837F7B",
"z#	c #84898B",
"A#	c #EEF8FE",
"B#	c #5C5B59",
"C#	c #696A69",
"D#	c #D5DAE4",
"E#	c #96918E",
"F#	c #959292",
"G#	c #A4A5A7",
"H#	c #C5C9CD",
"I#	c #D4DAE3",
"J#	c #CACED2",
"K#	c #413427",
"L#	c #423528",
"M#	c #443629",
"N#	c #7A685B",
"O#	c #867D75",
"P#	c #918B86",
"Q#	c #F4FCFF",
"R#	c #7A7A79",
"S#	c #858888",
"T#	c #DDE1E8",
"U#	c #9FA4A6",
"V#	c #B5ACA5",
"W#	c #BAB6B2",
"X#	c #C3CACE",
"Y#	c #DDE5EA",
"Z#	c #DAE1E3",
"`#	c #DCE4E8",
" $	c #E4E9EE",
".$	c #140F0A",
"+$	c #AEB0B1",
"@$	c #D4D8DC",
"#$	c #F2F8FF",
"$$	c #22211A",
"%$	c #797A78",
"&$	c #A0A0A0",
"*$	c #E3EAF1",
"=$	c #BCC1CC",
"-$	c #3F3226",
";$	c #403327",
">$	c #423428",
",$	c #655A4F",
"'$	c #79675A",
")$	c #736A62",
"!$	c #403B34",
"~$	c #EBF2F5",
"{$	c #36322F",
"]$	c #524E4B",
"^$	c #EBF0F4",
"/$	c #8D8D8D",
"($	c #A19E9C",
"_$	c #ADB1B0",
":$	c #C7CDD3",
"<$	c #FCFFFF",
"[$	c #FBFFFF",
"}$	c #6F6E6D",
"|$	c #D3D4D7",
"1$	c #EFF6F7",
"2$	c #191511",
"3$	c #818485",
"4$	c #B7BCBE",
"5$	c #F5FAFF",
"6$	c #3D3024",
"7$	c #3E3125",
"8$	c #403326",
"9$	c #6C6258",
"0$	c #786659",
"a$	c #7B746D",
"b$	c #6E6B68",
"c$	c #EDF5F8",
"d$	c #828081",
"e$	c #8F9190",
"f$	c #E5EBEF",
"g$	c #AEB1B4",
"h$	c #C9CECD",
"i$	c #C2C8CA",
"j$	c #AAB1B4",
"k$	c #B8BBBD",
"l$	c #8A8A8B",
"m$	c #7C7C7B",
"n$	c #7A7877",
"o$	c #4E4B4B",
"p$	c #949697",
"q$	c #AAABAD",
"r$	c #4C4C4A",
"s$	c #7D7E7E",
"t$	c #878888",
"u$	c #8B8B8D",
"v$	c #79787D",
"w$	c #F7F6F6",
"x$	c #2D251B",
"y$	c #3C3024",
"z$	c #3D3125",
"A$	c #A9A39D",
"B$	c #756557",
"C$	c #878179",
"D$	c #AEB1B2",
"E$	c #E7F0F8",
"F$	c #D2D5DB",
"G$	c #D3D5D9",
"H$	c #DBDFE3",
"I$	c #D1D8E0",
"J$	c #F1F9FB",
"K$	c #D6DDE2",
"L$	c #8C9293",
"M$	c #818486",
"N$	c #31302E",
"O$	c #141212",
"P$	c #110D0B",
"Q$	c #312D2E",
"R$	c #413D3A",
"S$	c #484642",
"T$	c #585757",
"U$	c #7E8081",
"V$	c #797A7A",
"W$	c #5D5C5C",
"X$	c #24211F",
"Y$	c #080503",
"Z$	c #4A4846",
"`$	c #716F6F",
" %	c #F5F5F5",
".%	c #090705",
"+%	c #2D231B",
"@%	c #3B2F24",
"#%	c #726256",
"$%	c #95908D",
"%%	c #F3FAFF",
"&%	c #F2F9FF",
"*%	c #F1F6FE",
"=%	c #EEF4F9",
"-%	c #E7EDEE",
";%	c #DDE1E5",
">%	c #EDF3F6",
",%	c #CCD2D7",
"'%	c #898E93",
")%	c #E1E6EA",
"!%	c #D1D6DA",
"~%	c #BDBFC2",
"{%	c #B9B5B3",
"]%	c #A0A0A3",
"^%	c #A5A5A7",
"/%	c #C4C3C2",
"(%	c #ABAEB2",
"_%	c #929596",
":%	c #8C8C8B",
"<%	c #8F8B88",
"[%	c #5C5A59",
"}%	c #BABDBF",
"|%	c #C5CACC",
"1%	c #A8AFB1",
"2%	c #4F504C",
"3%	c #060403",
"4%	c #2E241B",
"5%	c #392E22",
"6%	c #C5BFBA",
"7%	c #C1BCBA",
"8%	c #888C8B",
"9%	c #C8CFD0",
"0%	c #575757",
"a%	c #706F70",
"b%	c #E4EAF0",
"c%	c #83807D",
"d%	c #BDBFC1",
"e%	c #B8B9BB",
"f%	c #868481",
"g%	c #494948",
"h%	c #24201E",
"i%	c #413E38",
"j%	c #8A8A8A",
"k%	c #050000",
"l%	c #252220",
"m%	c #2F2C29",
"n%	c #3A3735",
"o%	c #4C4C4C",
"p%	c #4F514F",
"q%	c #6C6C6D",
"r%	c #A9AEB0",
"s%	c #7A7A7F",
"t%	c #8C8E8E",
"u%	c #8D8C8C",
"v%	c #8D8C8D",
"w%	c #848484",
"x%	c #F6F6F6",
"y%	c #282626",
"z%	c #33291E",
"A%	c #372C21",
"B%	c #C2BFBB",
"C%	c #D0D2D4",
"D%	c #737877",
"E%	c #DBE1E3",
"F%	c #595A59",
"G%	c #757472",
"H%	c #F6FDFF",
"I%	c #807D7C",
"J%	c #C7CACE",
"K%	c #C1C4C8",
"L%	c #918F8F",
"M%	c #625E5C",
"N%	c #22201F",
"O%	c #3B3B38",
"P%	c #9C9D9F",
"Q%	c #070000",
"R%	c #383631",
"S%	c #3E3C38",
"T%	c #35322F",
"U%	c #403938",
"V%	c #413E3E",
"W%	c #535151",
"X%	c #7E7F81",
"Y%	c #3E3C3C",
"Z%	c #676766",
"`%	c #646362",
" &	c #4A4948",
".&	c #5E5E59",
"+&	c #F8F8F8",
"@&	c #111110",
"#&	c #33291F",
"$&	c #352A20",
"%&	c #B9B5B4",
"&&	c #D6DBDD",
"*&	c #5B5F5D",
"=&	c #E3E8EA",
"-&	c #575756",
";&	c #747272",
">&	c #7D7B7B",
",&	c #CDD4D7",
"'&	c #C7CBCF",
")&	c #989699",
"!&	c #7C756C",
"~&	c #352D2B",
"{&	c #494340",
"]&	c #A0A3A2",
"^&	c #0B0704",
"/&	c #3D3B38",
"(&	c #43403F",
"_&	c #3F3A39",
":&	c #2F2726",
"<&	c #3D3836",
"[&	c #444444",
"}&	c #5C6061",
"|&	c #1A120F",
"1&	c #595756",
"2&	c #4F4E4D",
"3&	c #211F1C",
"4&	c #3E3B37",
"5&	c #2C2C2C",
"6&	c #251D16",
"7&	c #292118",
"8&	c #7F634C",
"9&	c #BEBBB6",
"0&	c #C1C3C4",
"a&	c #120F0B",
"b&	c #C9CCCE",
"c&	c #403F3F",
"d&	c #625F5F",
"e&	c #F6FCFF",
"f&	c #616163",
"g&	c #C6CBD1",
"h&	c #C9D0D3",
"i&	c #A2A8AA",
"j&	c #8B7869",
"k&	c #826662",
"l&	c #84706E",
"m&	c #989999",
"n&	c #050100",
"o&	c #1C1917",
"p&	c #2F2E2F",
"q&	c #5B5B55",
"r&	c #1E1716",
"s&	c #504A46",
"t&	c #5D5B59",
"u&	c #6C6C70",
"v&	c #4A2926",
"w&	c #8A807D",
"x&	c #858380",
"y&	c #595A5A",
"z&	c #595B57",
"A&	c #222221",
"B&	c #120E0A",
"C&	c #25221E",
"D&	c #B8B5B4",
"E&	c #F0F6F7",
"F&	c #A9ACA9",
"G&	c #D8DBDE",
"H&	c #9EA4A6",
"I&	c #AEB0B4",
"J&	c #E7F1F8",
"K&	c #969B9F",
"L&	c #AFB8BB",
"M&	c #ABB4B7",
"N&	c #9CA4A7",
"O&	c #5A5B5A",
"P&	c #777A7B",
"Q&	c #84888A",
"R&	c #9C9C9D",
"S&	c #5C5A54",
"T&	c #646864",
"U&	c #675D5E",
"V&	c #7A5651",
"W&	c #4A4543",
"X&	c #898D8C",
"Y&	c #A0A5A6",
"Z&	c #B3B8BB",
"`&	c #6B6F6B",
" *	c #5A5A5A",
".*	c #555554",
"+*	c #5E6062",
"@*	c #797D7A",
"#*	c #575656",
"$*	c #302C29",
"%*	c #80654E",
"&*	c #827D7A",
"**	c #0D0B08",
"=*	c #765D47",
"-*	c #69533F",
"                                                                                                ",
"                                                                    . + @ # $                   ",
"                                                              % & % * = - - ;                   ",
"                                  >                   , ' ) ! ~ { ] ^ - - / ;                   ",
"                        ( _ : < [ } |         1 2 3 4 5 6 7 8 9 0 a b c - d e         f         ",
"                    g h i j k l m n o p q r s t u v w x y z A / B C D E   _           f         ",
"                    > F G H I J K L M N r O P Q R S T U V W y X Y   _                           ",
"                    Z `  ...M +.@.k l m n #.$.%.&.R *.=.-.;.  _                                 ",
"                  >._ ,.'.).F !.H j J ~.{.n ].^./.(._.                                          ",
"              :.<.[.}.|.1.2.`  ...M I 3.k 4.5.                                                  ",
"        6.7.8.9.0.a.b.c.d.e.e.f.g.h.i.                                                          ",
"        j.k.l.m.n.o.p.q.r.e.      _         s.t.u.v.                                            ",
"        w.x.y.z.A.B.n.C.    _         D.E.%.F.n G.H.                                            ",
"        w.I.J.K.L.M.N._       y O.P.S Q.R.$.t.{.k S.                                            ",
"        T.U.V.J.x.y.z.  W.7 z X.w T Y.Z.`.F.u.l @. +                                            ",
"        .+++@+#+$+J.%+  &+*+y V =+S -+;+$.>+{.H.I ,+                                            ",
"        .+'+)+!+U.~+{+  7 ]+x U ^+Q.&.`./+u.l @.H F                                             ",
"        (+_+:+<+!+@+[+  }+|+1+=+*.Q %.2+>+3+H.4+!.g.                                            ",
"        (+5+6+7+'+8+9+  0+x U S R &.s.t.u.v.@.a+F b+                                            ",
"        (+c+d+e+_+f+g+  X.1+T Y.Q h+F.n G.H.4+G g.2.                                            ",
"        i+j+k+d+5+_+    l+m+S n+%.$.t.o+p+q+r+b+s+B.                                            ",
"        i+t+u+v+c+w+    U x+Y.R.s.F.u.H y+z+A+N.B+C+                                            ",
"        i+D+E+F+j+G+    =+D.E.%.H+>+{.I+J+K+L+M+N+O+P+Q+R+S+T+U+V+W+                            ",
"        i+X+Y+Z+`+    P.S R F  @.@+@1.1.@@#@$@%@&@*@=@-@;@>@,@'@)@!@            f               ",
"        i+~@{@Y+u+    T Y.]@^@/@(@_@:@<@[@}@|@1@2@3@4@5@6@7@8@9@0@a@b@                          ",
"        i+c@d@e@f@    S R g@h@i@j@k@l@m@n@o@p@q@r@s@t@u@v@w@x@y@z@A@B@                          ",
"        i+C@D@E@X+    Y.&.F@G@_ H@I@J@K@L@M@N@O@P@Q@R@S@T@U@V@W@X@Y@Z@`@ #                      ",
"        i+.#+#@#c@    E.%.##$#%#&#*#=#-#;#>#,#'#)#!#~#{#]#^#/#(#_#:#<#[#}#    |#                ",
"        1#2#3#4#C@    R.$.5#6#7#8#9#0#a#b#c#d#e#f#g#h#i#j#k#l#m#n#o#p#q#r#                      ",
"        s#t#u#v#w#    h+F.x#y#z#A#B#C#D#E#F#G#H#I#J#                                            ",
"        s#K#L#M#2#    $.>+N#O#P#Q#R#S#T#U#V#W#X#Y#Z#`# $.$+$@$#$$$%$&$*$=$                      ",
"        s#-$;$>$,$_   /+u.'$)$!$~${$]$^$/$($_$:$<$<$_ [$}$|$1$_ 2$3$4$_ 5$                      ",
"        s#6$7$8$9$_   >+3+0$a$b$c$d$e$f$g$h$i$j$k$l$m$n$o$d$p$q$r$s$t$u$v$                      ",
"        w$x$y$z$A$  ].u.o+B$C$D$E$F$G$H$I$J$K$L$M$N$O$P$Q$R$S$T$U$V$W$X$Y$Z$`$                  ",
"         %.%+%@%    n G.H.#%$%%%&%*%=%-%;%>%,%'%~$)%!%~%{%]%^%/%(%_%:%<%[%}%|%1%2%              ",
"         %3%4%5%    {.k S.6%7%8%9%0%a%b%c%d%e%f%g%h%i%j%k%l%m%n%o%p%q%r%s%t%u%v%w%              ",
"        x%y%z%A%    l 3. +B%C%D%E%F%G%H%I%J%K%L%M%N%O%P%Q%R%S%T%U%V%W%X%Y%Z%`% &.&              ",
"        +&@&#&$&    H.I ,+%&&&*&=&-&;&<$>&,&'&)&!&~&{&]&^&/&(&_&:&<&[&}&|&1&2&3&4&              ",
"        x%5&6&7&    @.H 8&9&0&a&b&c&d&e&f&g&h&i&j&k&l&m&n&o&p&q&r&s&t&u&v&w&x&y&z&              ",
"          A&B&C&    4+G g.D&E&F&G&H&I&J&K&L&M&N&O&P&Q&R&S&T&U&V&W&X&Y&Z&`& *.*+*@*              ",
"          #*f $*_   %*g.e.&*                                                                    ",
"            **      =*-*                                                                        ",
"                                                                                                ",
"                                                                                                ",
"                                                                                                ",
"                                                                                                ",
"                                                                                                ",
"                                                                                                "};
